{
"photos": {
"page": 1,
"pages": 2739,
"perpage": 100,
"total": "273858",
"photo": [
{
"id": "24815584109",
"owner": "135793662@N03",
"secret": "56a4c5467a",
"server": "1702",
"farm": 2,
"title": "@electricavenueguitar with some beautiful babies!!! This double cutaway LP JR is breaking my heart!! Happy #gibsunday! #gibson #gear #gearwire #geartone #guitar #cool #gas #gearacquisitionsyndrome #cleantone #yourknowtone #cleantone #toneculture #notpedal",
"ispublic": 1,
"isfriend": 0,
"isfamily": 0
}
]
}
}